{
  "name": "operations",
  "description": "List of operations to be performed for ec2 instance(s)",
  "valueSelectionStrategy": "ORIGINAL_VALUE",
  "enumerationValues": [
    {"synonyms": ["get","describe"],"value": "list"},
    {"synonyms": ["enable","initiate"],"value": "start"},
    {"synonyms": ["disable"],"value": "stop"},
    {"synonyms": ["destroy","kill"],"value": "terminate"},
    {"synonyms": ["new","run"],"value": "create"}

  ],
  "createVersion":"True"
}